<svg width="19" height="19" viewBox="0 0 19 19" fill="none" xmlns="http://www.w3.org/2000/svg">
<path d="M4.22222 2.11111C4.22222 3.23211 3.47278 4.19689 2.11006 4.19689C0.827556 4.19689 0 3.287 0 2.166C0 1.01544 0.802222 0 2.11111 0C3.42 0 4.19689 0.960556 4.22222 2.11111ZM0 19V5.27778H4.22222V19H0Z" fill="white"/>
<path d="M6.33333 9.96867C6.33333 8.33784 6.2795 6.97512 6.22566 5.79817H10.0193L10.2072 7.61689H10.2874C10.8216 6.76084 12.1304 5.50578 14.3218 5.50578C16.9944 5.50578 19 7.29495 19 11.1446V19H14.7778V11.7578C14.7778 10.0753 14.1371 8.79173 12.6667 8.79173C11.5457 8.79173 10.9841 9.6995 10.6896 10.4479C10.5819 10.716 10.5556 11.0897 10.5556 11.4644V19H6.33333V9.96867Z" fill="white"/>
</svg>
